GeradorPrimos/simulation/qsim/Ger_pri.msim.vcd
$comment
	File created using the following command:
		vcd file Ger_pri.msim.vcd -direction
$end
$date
	Fri Jun  1 17:20:42 2018
$end
$version
	ModelSim Version 10.5b
$end
$timescale
	1ps
$end

$scope module counter_ram_vhd_vec_tst $end
$var wire 1 ! clk $end
$var wire 1 " counterValue [7] $end
$var wire 1 # counterValue [6] $end
$var wire 1 $ counterValue [5] $end
$var wire 1 % counterValue [4] $end
$var wire 1 & counterValue [3] $end
$var wire 1 ' counterValue [2] $end
$var wire 1 ( counterValue [1] $end
$var wire 1 ) counterValue [0] $end
$var wire 1 * enable $end
$var wire 1 + reset $end

$scope module i1 $end
$var wire 1 , gnd $end
$var wire 1 - vcc $end
$var wire 1 . unknown $end
$var wire 1 / devoe $end
$var wire 1 0 devclrn $end
$var wire 1 1 devpor $end
$var wire 1 2 ww_devoe $end
$var wire 1 3 ww_devclrn $end
$var wire 1 4 ww_devpor $end
$var wire 1 5 ww_reset $end
$var wire 1 6 ww_clk $end
$var wire 1 7 ww_enable $end
$var wire 1 8 ww_counterValue [7] $end
$var wire 1 9 ww_counterValue [6] $end
$var wire 1 : ww_counterValue [5] $end
$var wire 1 ; ww_counterValue [4] $end
$var wire 1 < ww_counterValue [3] $end
$var wire 1 = ww_counterValue [2] $end
$var wire 1 > ww_counterValue [1] $end
$var wire 1 ? ww_counterValue [0] $end
$var wire 1 @ \counterValue[0]~output_o\ $end
$var wire 1 A \counterValue[1]~output_o\ $end
$var wire 1 B \counterValue[2]~output_o\ $end
$var wire 1 C \counterValue[3]~output_o\ $end
$var wire 1 D \counterValue[4]~output_o\ $end
$var wire 1 E \counterValue[5]~output_o\ $end
$var wire 1 F \counterValue[6]~output_o\ $end
$var wire 1 G \counterValue[7]~output_o\ $end
$var wire 1 H \clk~input_o\ $end
$var wire 1 I \s_counterValue[0]~8_combout\ $end
$var wire 1 J \reset~input_o\ $end
$var wire 1 K \s_counterValue[0]~9\ $end
$var wire 1 L \s_counterValue[1]~13_combout\ $end
$var wire 1 M \s_counterValue[1]~14\ $end
$var wire 1 N \s_counterValue[2]~15_combout\ $end
$var wire 1 O \s_counterValue[2]~16\ $end
$var wire 1 P \s_counterValue[3]~17_combout\ $end
$var wire 1 Q \s_counterValue[0]~10_combout\ $end
$var wire 1 R \s_counterValue[3]~18\ $end
$var wire 1 S \s_counterValue[4]~19_combout\ $end
$var wire 1 T \s_counterValue[4]~20\ $end
$var wire 1 U \s_counterValue[5]~21_combout\ $end
$var wire 1 V \s_counterValue[5]~22\ $end
$var wire 1 W \s_counterValue[6]~23_combout\ $end
$var wire 1 X \s_counterValue[6]~24\ $end
$var wire 1 Y \s_counterValue[7]~25_combout\ $end
$var wire 1 Z \s_counterValue[0]~11_combout\ $end
$var wire 1 [ \enable~input_o\ $end
$var wire 1 \ \s_counterValue[0]~12_combout\ $end
$var wire 1 ] s_counterValue [7] $end
$var wire 1 ^ s_counterValue [6] $end
$var wire 1 _ s_counterValue [5] $end
$var wire 1 ` s_counterValue [4] $end
$var wire 1 a s_counterValue [3] $end
$var wire 1 b s_counterValue [2] $end
$var wire 1 c s_counterValue [1] $end
$var wire 1 d s_counterValue [0] $end
$upscope $end
$upscope $end
$enddefinitions $end
#0
$dumpvars
0!
1*
0+
0,
1-
x.
1/
10
11
12
13
14
05
06
17
0@
0A
0B
0C
0D
0E
0F
0G
0H
1I
0J
0K
0L
1M
0N
0O
0P
0Q
1R
0S
0T
0U
1V
0W
0X
0Y
0Z
1[
1\
0"
0#
0$
0%
0&
0'
0(
0)
08
09
0:
0;
0<
0=
0>
0?
0]
0^
0_
0`
0a
0b
0c
0d
$end
#10000
1!
16
1H
1d
0I
1K
1L
1@
1?
1)
#20000
0!
06
0H
#30000
1!
16
1H
1c
0d
1I
0K
0L
0M
1N
1L
1M
0@
1A
0N
0?
1>
0)
1(
#40000
0!
06
0H
#50000
1!
16
1H
1d
0I
1K
0L
0M
1@
1N
1?
1)
#60000
0!
06
0H
#70000
1!
16
1H
0c
1b
0d
1I
0K
0N
1O
1L
1M
1N
0O
1P
0L
0@
1B
0A
0P
0?
1=
0>
0)
0(
1'
#80000
0!
06
0H
#90000
1!
16
1H
1d
0I
1K
1L
1@
1?
1)
#100000
0!
06
0H
#110000
1!
16
1H
1c
0d
1I
0K
0L
0M
0N
1O
1L
1M
0@
1A
1N
0O
1P
0?
1>
0)
1(
0P
#120000
0!
06
0H
#130000
1!
16
1H
1d
0I
1K
0L
0M
1@
0N
1O
1?
1)
1P
#140000
0!
06
0H
#150000
1!
16
1H
0c
0b
1a
0d
1I
0K
0P
0R
1N
0O
1L
1M
0N
1P
1R
1S
0L
0@
1C
0B
0A
0S
0?
1<
0=
0>
0)
0(
0'
1&
#160000
0!
06
0H
#170000
1!
16
1H
1d
0I
1K
1L
1@
1?
1)
#180000
0!
06
0H
#190000
1!
16
1H
1c
0d
1I
0K
0L
0M
1N
1L
1M
0@
1A
0N
0?
1>
0)
1(
#200000
0!
06
0H
#210000
1!
16
1H
1d
0I
1K
0L
0M
1@
1N
1?
1)
#220000
0!
06
0H
#230000
1!
16
1H
0c
1b
0d
1I
0K
0N
1O
1L
1M
1N
0O
0P
0R
0L
0@
1B
0A
1S
1P
1R
0?
1=
0>
0)
0(
1'
0S
#240000
0!
06
0H
#250000
1!
16
1H
1d
0I
1K
1L
1@
1?
1)
#260000
0!
06
0H
#270000
1!
16
1H
1c
0d
1I
0K
0L
0M
0N
1O
1L
1M
0@
1A
1N
0O
0P
0R
0?
1>
0)
1(
1S
1P
1R
0S
#280000
0!
06
0H
#290000
1!
16
1H
1d
0I
1K
1Q
0L
0M
1@
0N
1O
1?
1)
0P
0R
1S
#300000
0!
06
0H
#310000
1!
16
1H
0c
0b
0a
1`
0d
1I
0K
0S
1T
1P
1R
1N
0O
1L
1M
0Q
0N
0P
1S
0T
1U
0L
0@
1D
0C
0B
0A
0U
0?
1;
0<
0=
0>
0)
0(
0'
0&
1%
#320000
0!
06
0H
#330000
1!
16
1H
1d
0I
1K
1L
1@
1?
1)
#340000
0!
06
0H
#350000
1!
16
1H
1c
0d
1I
0K
0L
0M
1N
1L
1M
0@
1A
0N
0?
1>
0)
1(
#360000
0!
06
0H
#370000
1!
16
1H
1d
0I
1K
0L
0M
1@
1N
1?
1)
#380000
0!
06
0H
#390000
1!
16
1H
0c
1b
0d
1I
0K
0N
1O
1L
1M
1N
0O
1P
0L
0@
1B
0A
0P
0?
1=
0>
0)
0(
1'
#400000
0!
06
0H
#410000
1!
16
1H
1d
0I
1K
1L
1@
1?
1)
#420000
0!
06
0H
#430000
1!
16
1H
1c
0d
1I
0K
0L
0M
0N
1O
1L
1M
0@
1A
1N
0O
1P
0?
1>
0)
1(
0P
#440000
0!
06
0H
#450000
1!
16
1H
1d
0I
1K
0L
0M
1@
0N
1O
1?
1)
1P
#460000
0!
06
0H
#470000
1!
16
1H
0c
0b
1a
0d
1I
0K
0P
0R
1N
0O
1L
1M
0N
1P
1R
0S
1T
0L
0@
1C
0B
0A
1U
1S
0T
0?
1<
0=
0>
0)
0(
0'
1&
0U
#480000
0!
06
0H
#490000
1!
16
1H
1d
0I
1K
1L
1@
1?
1)
#500000
0!
06
0H
#510000
1!
16
1H
1c
0d
1I
0K
0L
0M
1N
1L
1M
0@
1A
0N
0?
1>
0)
1(
#520000
0!
06
0H
#530000
1!
16
1H
1d
0I
1K
0L
0M
1@
1N
1?
1)
#540000
0!
06
0H
#550000
1!
16
1H
0c
1b
0d
1I
0K
0N
1O
1L
1M
1N
0O
0P
0R
0L
0@
1B
0A
0S
1T
1P
1R
0?
1=
0>
0)
0(
1'
1S
0T
1U
0U
#560000
0!
06
0H
#570000
1!
16
1H
1d
0I
1K
1L
1@
1?
1)
#580000
0!
06
0H
#590000
1!
16
1H
1c
0d
1I
0K
0L
0M
0N
1O
1L
1M
0@
1A
1N
0O
0P
0R
0?
1>
0)
1(
0S
1T
1P
1R
1S
0T
1U
0U
#600000
0!
06
0H
#610000
1!
16
1H
1d
0I
1K
1Q
0L
0M
1@
0N
1O
1?
1)
0P
0R
0S
1T
1U
#620000
0!
06
0H
#630000
1!
16
1H
0c
0b
0a
0`
1_
0d
1I
0K
0U
0V
1S
0T
1P
1R
1N
0O
1L
1M
0Q
0N
0P
0S
1U
1V
1W
0L
0@
1E
0D
0C
0B
0A
0W
0?
1:
0;
0<
0=
0>
0)
0(
0'
0&
0%
1$
#640000
0!
06
0H
#650000
1!
16
1H
1d
0I
1K
1L
1@
1?
1)
#660000
0!
06
0H
#670000
1!
16
1H
1c
0d
1I
0K
0L
0M
1N
1L
1M
0@
1A
0N
0?
1>
0)
1(
#680000
0!
06
0H
#690000
1!
16
1H
1d
0I
1K
0L
0M
1@
1N
1?
1)
#700000
0!
06
0H
#710000
1!
16
1H
0c
1b
0d
1I
0K
0N
1O
1L
1M
1N
0O
1P
0L
0@
1B
0A
0P
0?
1=
0>
0)
0(
1'
#720000
0!
06
0H
#730000
1!
16
1H
1d
0I
1K
1L
1@
1?
1)
#740000
0!
06
0H
#750000
1!
16
1H
1c
0d
1I
0K
0L
0M
0N
1O
1L
1M
0@
1A
1N
0O
1P
0?
1>
0)
1(
0P
#760000
0!
06
0H
#770000
1!
16
1H
1d
0I
1K
0L
0M
1@
0N
1O
1?
1)
1P
#780000
0!
06
0H
#790000
1!
16
1H
0c
0b
1a
0d
1I
0K
0P
0R
1N
0O
1L
1M
0N
1P
1R
1S
0L
0@
1C
0B
0A
0S
0?
1<
0=
0>
0)
0(
0'
1&
#800000
0!
06
0H
#810000
1!
16
1H
1d
0I
1K
1L
1@
1?
1)
#820000
0!
06
0H
#830000
1!
16
1H
1c
0d
1I
0K
0L
0M
1N
1L
1M
0@
1A
0N
0?
1>
0)
1(
#840000
0!
06
0H
#850000
1!
16
1H
1d
0I
1K
0L
0M
1@
1N
1?
1)
#860000
0!
06
0H
#870000
1!
16
1H
0c
1b
0d
1I
0K
0N
1O
1L
1M
1N
0O
0P
0R
0L
0@
1B
0A
1S
1P
1R
0?
1=
0>
0)
0(
1'
0S
#880000
0!
06
0H
#890000
1!
16
1H
1d
0I
1K
1L
1@
1?
1)
#900000
0!
06
0H
#910000
1!
16
1H
1c
0d
1I
0K
0L
0M
0N
1O
1L
1M
0@
1A
1N
0O
0P
0R
0?
1>
0)
1(
1S
1P
1R
0S
#920000
0!
06
0H
#930000
1!
16
1H
1d
0I
1K
1Q
0L
0M
1@
0N
1O
1?
1)
0P
0R
1S
#940000
0!
06
0H
#950000
1!
16
1H
0c
0b
0a
1`
0d
1I
0K
0S
1T
1P
1R
1N
0O
1L
1M
0Q
0N
0P
1S
0T
0U
0V
0L
0@
1D
0C
0B
0A
1W
1U
1V
0?
1;
0<
0=
0>
0)
0(
0'
0&
1%
0W
#960000
0!
06
0H
#970000
1!
16
1H
1d
0I
1K
1L
1@
1?
1)
#980000
0!
06
0H
#990000
1!
16
1H
1c
0d
1I
0K
0L
0M
1N
1L
1M
0@
1A
0N
0?
1>
0)
1(
